{
    "Airbus A320 (MSFS)": "Airbus A320neo",
    "American Champion Scout": "Icon A5",
    "Aviat Pitts Special (MSFS)": "Aviat Pitts Special S2S",
    "Beechcraft Bonanza A36": "Beechcraft Bonanza G36",
    "Beechcraft King Air 350": "Beechcraft King Air 350i",
    "Boeing 747-400": "Boeing 747-8 Intercontinental",
    "Cessna 152 Aerobat": "Cessna 152",
    "Cessna 172 Skyhawk": "Cessna 172 Skyhawk (G1000)",
    "Cessna 208 Caravan": "Cessna 208 B Grand Caravan EX",
    "Cessna Citation CJ4 (MSFS)": "Cessna Citation CJ4",
    "Cub Crafters XCub (MSFS)": "Cub Crafter NXCub or Cub Crafter X Cub",
    "Diamond DA40D DiamondStar": "Diamond Aircraft DA40NG",
    "Diamond DA62": "Diamond Aircraft DA62",
    "Liberty XL2": "JMB Aircraft VL-3",
    "Mudry CAP 10 (MSFS)": "Robin Cap10",
    "Pilatus PC-6 Porter": "Pilatus PC-6",
    "Piper PA-38 Tomahawk": "Flight Design CTSL",
    "Robin DR400-100 Cadet (MSFS)": "Robin DR400/100 Cadet",
    "Savage Cub (MSFS)": "Zlin Aviation Savage Cub",
    "Socata TBM 930 (MSFS)": "Daher TBM 930",
    "Vans RV-7/7A": "EXTRA 330LT"
}
